…
Next we can test for differential abundance of footprints between Adnp
KO and WT samples.

## Calculate differential NOMe-seq footprint abundance between Adnp KO and WT

We use edgeR to check for differences in abundance between wild type and
Adnp KO samples for each footprint type fragment count compared to the
total fragment counts. Library sizes for TMM normalization are
calculated on the total fragment counts.

``` r
res <- diNOMeTest(NomeData,WTsamples = c("WT_1","WT_2"),
  KOsamples = c("AdnpKO_1","AdnpKO_2"))
res
#> # A tibble: 1,240 × 10
#>     logFC logCPM     F      PValue       FDR contrasts   ROI    motif logadjPval
#>     <dbl>  <dbl> <dbl>       <dbl>     <dbl> <chr>       <chr>  <chr>      <dbl>
#>  1  2.11   10.6  27.3  0.000000193 0.0000478 open_vs_all Adnp_… Adnp       4.32 
#>  2  1.68   10.5  16.5  0.0000491   0.00609   open_vs_all Adnp_… Adnp       2.22 
#>  3  1.52   10.0   9.36 0.00224     0.185     open_vs_all Adnp_… Adnp       0.732
#>  4  1.21    8.97  8.62 0.00336     0.199     open_vs_all Adnp_… Adnp       0.701
#>  5 -1.47   10.2   8.20 0.00423     0.199     open_vs_all Ctcf_… Adnp       0.701
#>  6  1.03   10.2   7.96 0.00481     0.199     open_vs_all Adnp_… Adnp       0.701
#>  7  1.13    9.88  6.84 0.00899     0.318     open_vs_all Adnp_… Adnp       0.497
#>  8  1.32   10.5   5.72 0.0169      0.523     open_vs_all Adnp_… Adnp       0.281
#>  9  1.06   10.7   5.51 0.0190      0.523     open_vs_all Adnp_… Adnp       0.281
#> 10  0.994  10.4   4.83 0.0281      0.633     open_vs_all Adnp_… Adnp       0.199
#> # ℹ 1,230 more rows
#> # ℹ 1 more variable: regulated <chr>
```
…
